vlt_dump.vcd
$version Generated by VerilatedVcd $end
$date Tue Mar  8 10:41:34 2022
 $end
$timescale   1ns $end

 $scope module TOP $end
  $var wire  1 _" clk $end
  $var wire  1 w" failed $end
  $var wire  1 o" passed $end
  $var wire  1 g" reset_async $end
  $scope module makerchip $end
   $var wire  1 _" clk $end
   $var wire 32 + cyc_cnt [31:0] $end
   $var wire  1 w" failed $end
   $var wire  1 o" passed $end
   $var wire  1 # reset $end
   $var wire  1 g" reset_async $end
   $scope module top $end
    $var wire  1 # L0_reset_a0 $end
    $var wire 257 3 RW_rand_raw [256:0] $end
    $var wire 320 { RW_rand_vect [319:0] $end
    $var wire  1 _" clk $end
    $var wire 32 + cyc_cnt [31:0] $end
    $var wire  1 w" failed $end
    $var wire  1 o" passed $end
    $var wire  1 # reset $end
    $scope module DEBUG_SIGS $end
     $var wire  1 # @0$reset $end
    $upscope $end
    $scope module pseudo_rand $end
     $var wire 257 u! DEFAULT_lfsr_a1 [256:0] $end
     $var wire 257 3 DEFAULT_lfsr_a2 [256:0] $end
     $var wire  1 # DEFAULT_reset_a0 $end
     $var wire  1 m! DEFAULT_reset_a1 $end
     $var wire 257 )# LFSR_POLY [256:0] $end
     $var wire 32 !# LFSR_WIDTH [31:0] $end
     $var wire 257 q# SEED [256:0] $end
     $var wire 32 !# WIDTH [31:0] $end
     $var wire  1 _" clk $end
     $var wire 257 3 rand_vect [256:0] $end
     $var wire  1 # reset $end
    $upscope $end
   $upscope $end
  $upscope $end
 $upscope $end
$enddefinitions $end


#0
0#
b00000000000000000000000000000000 +
b00000000000000000000000000000000000000000000000000000000000000000000000000000000000000000000000000000000000000000000000000000000000000000000000000000000000000000000000000000000000000000000000000000000000000000000000000000000000000000000000000000000000000000 3
b00000000000000000000000000000000000000000000000000000000000000000000000000000000000000000000000000000000000000000000000000000000000000000000000000000000000000000000000000000000000000000000000000000000000000000000000000000000000000000000000000000000000000000000000000000000000000000000000000000000000000000000000000000000 {
0m!
b00000000000000000000000000000000000000000000000000000000000000000000000000000000000000000000000000000000000000000000000000000000000000000000000000000000000000000000000000000000000000000000000000000000000000000000000000000000000000000000000000000000000000000 u!
1_"
1g"
0o"
0w"
b00000000000000000000000100000001 !#
b00000000000000000000000000000000000000000000000000000000000000000000000000000000000000000000000000000000000000000000000000000000000000000000000000000000000000000000000000000000000000000000000000000000000000000000000000000000000000000000000000000000011000101 )#
b00111000101100011111000010110100001110001001111010101010000110001011001101000010011100001001100100101110011011000010010000100100011110011000001001000101101000110011101101000011101000110010101000000110001000101111110000110010000000100111001000110100001001010 q#
#1
0_"
#2
1#
b00000000000000000000000000000001 +
1_"
#3
0_"
#4
1m!
b00111000101100011111000010110100001110001001111010101010000110001011001101000010011100001001100100101110011011000010010000100100011110011000001001000101101000110011101101000011101000110010101000000110001000101111110000110010000000100111001000110100001001010 u!
1_"
#5
0_"
#6
b00111000101100011111000010110100001110001001111010101010000110001011001101000010011100001001100100101110011011000010010000100100011110011000001001000101101000110011101101000011101000110010101000000110001000101111110000110010000000100111001000110100001001010 3
b00011000100010111111000011001000000010011100100011010000100101000111000101100011111000010110100001110001001111010101010000110001011001101000010011100001001100100101110011011000010010000100100011110011000001001000101101000110011101101000011101000110010101000000110001000101111110000110010000000100111001000110100001001010 {
1_"
#7
0_"
#8
1_"
#9
0_"
0g"
#10
0#
1_"
#11
0_"
#12
b00000000000000000000000000000010 +
0m!
b01110001011000111110000101101000011100010011110101010100001100010110011010000100111000010011001001011100110110000100100001001000111100110000010010001011010001100111011010000111010001100101010000001100010001011111100001100100000001001110010001101000010010100 u!
1_"
#13
0_"
#14
b00000000000000000000000000000011 +
b01110001011000111110000101101000011100010011110101010100001100010110011010000100111000010011001001011100110110000100100001001000111100110000010010001011010001100111011010000111010001100101010000001100010001011111100001100100000001001110010001101000010010100 3
b00110001000101111110000110010000000100111001000110100001001010001110001011000111110000101101000011100010011110101010100001100010110011010000100111000010011001001011100110110000100100001001000111100110000010010001011010001100111011010000111010001100101010000001100010001011111100001100100000001001110010001101000010010100 {
b11100010110001111100001011010000111000100111101010101000011000101100110100001001110000100110010010111001101100001001000010010001111001100000100100010110100011001110110100001110100011001010100000011000100010111111000011001000000010011100100011010000100101000 u!
1_"
#15
0_"
#16
b00000000000000000000000000000100 +
b11100010110001111100001011010000111000100111101010101000011000101100110100001001110000100110010010111001101100001001000010010001111001100000100100010110100011001110110100001110100011001010100000011000100010111111000011001000000010011100100011010000100101000 3
b01100010001011111100001100100000001001110010001101000010010100011100010110001111100001011010000111000100111101010101000011000101100110100001001110000100110010010111001101100001001000010010001111001100000100100010110100011001110110100001110100011001010100000011000100010111111000011001000000010011100100011010000100101000 {
b11000101100011111000010110100001110001001111010101010000110001011001101000010011100001001100100101110011011000010010000100100011110011000001001000101101000110011101101000011101000110010101000000110001000101111110000110010000000100111001000110100001010010101 u!
1_"
#17
0_"
#18
b00000000000000000000000000000101 +
b11000101100011111000010110100001110001001111010101010000110001011001101000010011100001001100100101110011011000010010000100100011110011000001001000101101000110011101101000011101000110010101000000110001000101111110000110010000000100111001000110100001010010101 3
b11000100010111111000011001000000010011100100011010000101001010111000101100011111000010110100001110001001111010101010000110001011001101000010011100001001100100101110011011000010010000100100011110011000001001000101101000110011101101000011101000110010101000000110001000101111110000110010000000100111001000110100001010010101 {
b10001011000111110000101101000011100010011110101010100001100010110011010000100111000010011001001011100110110000100100001001000111100110000010010001011010001100111011010000111010001100101010000001100010001011111100001100100000001001110010001101000010111101111 u!
1_"
#19
0_"
#20
b00000000000000000000000000000110 +
b10001011000111110000101101000011100010011110101010100001100010110011010000100111000010011001001011100110110000100100001001000111100110000010010001011010001100111011010000111010001100101010000001100010001011111100001100100000001001110010001101000010111101111 3
b10001000101111110000110010000000100111001000110100001011110111110001011000111110000101101000011100010011110101010100001100010110011010000100111000010011001001011100110110000100100001001000111100110000010010001011010001100111011010000111010001100101010000001100010001011111100001100100000001001110010001101000010111101111 {
b00010110001111100001011010000111000100111101010101000011000101100110100001001110000100110010010111001101100001001000010010001111001100000100100010110100011001110110100001110100011001010100000011000100010111111000011001000000010011100100011010000101100011011 u!
1_"
#21
0_"
#22
b00000000000000000000000000000111 +
b00010110001111100001011010000111000100111101010101000011000101100110100001001110000100110010010111001101100001001000010010001111001100000100100010110100011001110110100001110100011001010100000011000100010111111000011001000000010011100100011010000101100011011 3
b00010001011111100001100100000001001110010001101000010110001101100010110001111100001011010000111000100111101010101000011000101100110100001001110000100110010010111001101100001001000010010001111001100000100100010110100011001110110100001110100011001010100000011000100010111111000011001000000010011100100011010000101100011011 {
b00101100011111000010110100001110001001111010101010000110001011001101000010011100001001100100101110011011000010010000100100011110011000001001000101101000110011101101000011101000110010101000000110001000101111110000110010000000100111001000110100001011000110110 u!
1_"
#23
0_"
#24
b00000000000000000000000000001000 +
b00101100011111000010110100001110001001111010101010000110001011001101000010011100001001100100101110011011000010010000100100011110011000001001000101101000110011101101000011101000110010101000000110001000101111110000110010000000100111001000110100001011000110110 3
b00100010111111000011001000000010011100100011010000101100011011000101100011111000010110100001110001001111010101010000110001011001101000010011100001001100100101110011011000010010000100100011110011000001001000101101000110011101101000011101000110010101000000110001000101111110000110010000000100111001000110100001011000110110 {
b01011000111110000101101000011100010011110101010100001100010110011010000100111000010011001001011100110110000100100001001000111100110000010010001011010001100111011010000111010001100101010000001100010001011111100001100100000001001110010001101000010110001101100 u!
1_"
#25
0_"
#26
b00000000000000000000000000001001 +
b01011000111110000101101000011100010011110101010100001100010110011010000100111000010011001001011100110110000100100001001000111100110000010010001011010001100111011010000111010001100101010000001100010001011111100001100100000001001110010001101000010110001101100 3
b01000101111110000110010000000100111001000110100001011000110110001011000111110000101101000011100010011110101010100001100010110011010000100111000010011001001011100110110000100100001001000111100110000010010001011010001100111011010000111010001100101010000001100010001011111100001100100000001001110010001101000010110001101100 {
b10110001111100001011010000111000100111101010101000011000101100110100001001110000100110010010111001101100001001000010010001111001100000100100010110100011001110110100001110100011001010100000011000100010111111000011001000000010011100100011010000101100011011000 u!
1_"
#27
0_"
#28
b00000000000000000000000000001010 +
b10110001111100001011010000111000100111101010101000011000101100110100001001110000100110010010111001101100001001000010010001111001100000100100010110100011001110110100001110100011001010100000011000100010111111000011001000000010011100100011010000101100011011000 3
b10001011111100001100100000001001110010001101000010110001101100010110001111100001011010000111000100111101010101000011000101100110100001001110000100110010010111001101100001001000010010001111001100000100100010110100011001110110100001110100011001010100000011000100010111111000011001000000010011100100011010000101100011011000 {
b01100011111000010110100001110001001111010101010000110001011001101000010011100001001100100101110011011000010010000100100011110011000001001000101101000110011101101000011101000110010101000000110001000101111110000110010000000100111001000110100001011000101110101 u!
1_"
#29
0_"
#30
b00000000000000000000000000001011 +
b01100011111000010110100001110001001111010101010000110001011001101000010011100001001100100101110011011000010010000100100011110011000001001000101101000110011101101000011101000110010101000000110001000101111110000110010000000100111001000110100001011000101110101 3
b00010111111000011001000000010011100100011010000101100010111010101100011111000010110100001110001001111010101010000110001011001101000010011100001001100100101110011011000010010000100100011110011000001001000101101000110011101101000011101000110010101000000110001000101111110000110010000000100111001000110100001011000101110101 {
b11000111110000101101000011100010011110101010100001100010110011010000100111000010011001001011100110110000100100001001000111100110000010010001011010001100111011010000111010001100101010000001100010001011111100001100100000001001110010001101000010110001011101010 u!
1_"
#31
0_"
#32
b00000000000000000000000000001100 +
b11000111110000101101000011100010011110101010100001100010110011010000100111000010011001001011100110110000100100001001000111100110000010010001011010001100111011010000111010001100101010000001100010001011111100001100100000001001110010001101000010110001011101010 3
b00101111110000110010000000100111001000110100001011000101110101011000111110000101101000011100010011110101010100001100010110011010000100111000010011001001011100110110000100100001001000111100110000010010001011010001100111011010000111010001100101010000001100010001011111100001100100000001001110010001101000010110001011101010 {
b10001111100001011010000111000100111101010101000011000101100110100001001110000100110010010111001101100001001000010010001111001100000100100010110100011001110110100001110100011001010100000011000100010111111000011001000000010011100100011010000101100010100010001 u!
1_"
#33
0_"
#34
b00000000000000000000000000001101 +
b10001111100001011010000111000100111101010101000011000101100110100001001110000100110010010111001101100001001000010010001111001100000100100010110100011001110110100001110100011001010100000011000100010111111000011001000000010011100100011010000101100010100010001 3
b01011111100001100100000001001110010001101000010110001010001000110001111100001011010000111000100111101010101000011000101100110100001001110000100110010010111001101100001001000010010001111001100000100100010110100011001110110100001110100011001010100000011000100010111111000011001000000010011100100011010000101100010100010001 {
b00011111000010110100001110001001111010101010000110001011001101000010011100001001100100101110011011000010010000100100011110011000001001000101101000110011101101000011101000110010101000000110001000101111110000110010000000100111001000110100001011000101011100111 u!
1_"
#35
0_"
#36
b00000000000000000000000000001110 +
b00011111000010110100001110001001111010101010000110001011001101000010011100001001100100101110011011000010010000100100011110011000001001000101101000110011101101000011101000110010101000000110001000101111110000110010000000100111001000110100001011000101011100111 3
b10111111000011001000000010011100100011010000101100010101110011100011111000010110100001110001001111010101010000110001011001101000010011100001001100100101110011011000010010000100100011110011000001001000101101000110011101101000011101000110010101000000110001000101111110000110010000000100111001000110100001011000101011100111 {
b00111110000101101000011100010011110101010100001100010110011010000100111000010011001001011100110110000100100001001000111100110000010010001011010001100111011010000111010001100101010000001100010001011111100001100100000001001110010001101000010110001010111001110 u!
1_"
#37
0_"
#38
b00000000000000000000000000001111 +
b00111110000101101000011100010011110101010100001100010110011010000100111000010011001001011100110110000100100001001000111100110000010010001011010001100111011010000111010001100101010000001100010001011111100001100100000001001110010001101000010110001010111001110 3
b01111110000110010000000100111001000110100001011000101011100111000111110000101101000011100010011110101010100001100010110011010000100111000010011001001011100110110000100100001001000111100110000010010001011010001100111011010000111010001100101010000001100010001011111100001100100000001001110010001101000010110001010111001110 {
b01111100001011010000111000100111101010101000011000101100110100001001110000100110010010111001101100001001000010010001111001100000100100010110100011001110110100001110100011001010100000011000100010111111000011001000000010011100100011010000101100010101110011100 u!
1_"
#39
0_"
#40
b00000000000000000000000000010000 +
b01111100001011010000111000100111101010101000011000101100110100001001110000100110010010111001101100001001000010010001111001100000100100010110100011001110110100001110100011001010100000011000100010111111000011001000000010011100100011010000101100010101110011100 3
b11111100001100100000001001110010001101000010110001010111001110001111100001011010000111000100111101010101000011000101100110100001001110000100110010010111001101100001001000010010001111001100000100100010110100011001110110100001110100011001010100000011000100010111111000011001000000010011100100011010000101100010101110011100 {
b11111000010110100001110001001111010101010000110001011001101000010011100001001100100101110011011000010010000100100011110011000001001000101101000110011101101000011101000110010101000000110001000101111110000110010000000100111001000110100001011000101011100111000 u!
1_"
#41
0_"
#42
b00000000000000000000000000010001 +
b11111000010110100001110001001111010101010000110001011001101000010011100001001100100101110011011000010010000100100011110011000001001000101101000110011101101000011101000110010101000000110001000101111110000110010000000100111001000110100001011000101011100111000 3
b11111000011001000000010011100100011010000101100010101110011100011111000010110100001110001001111010101010000110001011001101000010011100001001100100101110011011000010010000100100011110011000001001000101101000110011101101000011101000110010101000000110001000101111110000110010000000100111001000110100001011000101011100111000 {
b11110000101101000011100010011110101010100001100010110011010000100111000010011001001011100110110000100100001001000111100110000010010001011010001100111011010000111010001100101010000001100010001011111100001100100000001001110010001101000010110001010111010110101 u!
1_"
#43
0_"
#44
b00000000000000000000000000010010 +
b11110000101101000011100010011110101010100001100010110011010000100111000010011001001011100110110000100100001001000111100110000010010001011010001100111011010000111010001100101010000001100010001011111100001100100000001001110010001101000010110001010111010110101 3
b11110000110010000000100111001000110100001011000101011101011010111110000101101000011100010011110101010100001100010110011010000100111000010011001001011100110110000100100001001000111100110000010010001011010001100111011010000111010001100101010000001100010001011111100001100100000001001110010001101000010110001010111010110101 {
b11100001011010000111000100111101010101000011000101100110100001001110000100110010010111001101100001001000010010001111001100000100100010110100011001110110100001110100011001010100000011000100010111111000011001000000010011100100011010000101100010101110110101111 u!
1_"
#45
0_"
#46
b00000000000000000000000000010011 +
b11100001011010000111000100111101010101000011000101100110100001001110000100110010010111001101100001001000010010001111001100000100100010110100011001110110100001110100011001010100000011000100010111111000011001000000010011100100011010000101100010101110110101111 3
b11100001100100000001001110010001101000010110001010111011010111111100001011010000111000100111101010101000011000101100110100001001110000100110010010111001101100001001000010010001111001100000100100010110100011001110110100001110100011001010100000011000100010111111000011001000000010011100100011010000101100010101110110101111 {
b11000010110100001110001001111010101010000110001011001101000010011100001001100100101110011011000010010000100100011110011000001001000101101000110011101101000011101000110010101000000110001000101111110000110010000000100111001000110100001011000101011101110011011 u!
1_"
#47
0_"
#48
b00000000000000000000000000010100 +
b11000010110100001110001001111010101010000110001011001101000010011100001001100100101110011011000010010000100100011110011000001001000101101000110011101101000011101000110010101000000110001000101111110000110010000000100111001000110100001011000101011101110011011 3
b11000011001000000010011100100011010000101100010101110111001101111000010110100001110001001111010101010000110001011001101000010011100001001100100101110011011000010010000100100011110011000001001000101101000110011101101000011101000110010101000000110001000101111110000110010000000100111001000110100001011000101011101110011011 {
b10000101101000011100010011110101010100001100010110011010000100111000010011001001011100110110000100100001001000111100110000010010001011010001100111011010000111010001100101010000001100010001011111100001100100000001001110010001101000010110001010111011111110011 u!
1_"
#49
0_"
#50
b00000000000000000000000000010101 +
b10000101101000011100010011110101010100001100010110011010000100111000010011001001011100110110000100100001001000111100110000010010001011010001100111011010000111010001100101010000001100010001011111100001100100000001001110010001101000010110001010111011111110011 3
b10000110010000000100111001000110100001011000101011101111111001110000101101000011100010011110101010100001100010110011010000100111000010011001001011100110110000100100001001000111100110000010010001011010001100111011010000111010001100101010000001100010001011111100001100100000001001110010001101000010110001010111011111110011 {
b00001011010000111000100111101010101000011000101100110100001001110000100110010010111001101100001001000010010001111001100000100100010110100011001110110100001110100011001010100000011000100010111111000011001000000010011100100011010000101100010101110111100100011 u!
1_"
#51
0_"
#52
b00000000000000000000000000010110 +
b00001011010000111000100111101010101000011000101100110100001001110000100110010010111001101100001001000010010001111001100000100100010110100011001110110100001110100011001010100000011000100010111111000011001000000010011100100011010000101100010101110111100100011 3
b00001100100000001001110010001101000010110001010111011110010001100001011010000111000100111101010101000011000101100110100001001110000100110010010111001101100001001000010010001111001100000100100010110100011001110110100001110100011001010100000011000100010111111000011001000000010011100100011010000101100010101110111100100011 {
b00010110100001110001001111010101010000110001011001101000010011100001001100100101110011011000010010000100100011110011000001001000101101000110011101101000011101000110010101000000110001000101111110000110010000000100111001000110100001011000101011101111001000110 u!
1_"
#53
0_"
#54
b00000000000000000000000000010111 +
b00010110100001110001001111010101010000110001011001101000010011100001001100100101110011011000010010000100100011110011000001001000101101000110011101101000011101000110010101000000110001000101111110000110010000000100111001000110100001011000101011101111001000110 3
b00011001000000010011100100011010000101100010101110111100100011000010110100001110001001111010101010000110001011001101000010011100001001100100101110011011000010010000100100011110011000001001000101101000110011101101000011101000110010101000000110001000101111110000110010000000100111001000110100001011000101011101111001000110 {
b00101101000011100010011110101010100001100010110011010000100111000010011001001011100110110000100100001001000111100110000010010001011010001100111011010000111010001100101010000001100010001011111100001100100000001001110010001101000010110001010111011110010001100 u!
1_"
#55
0_"
#56
b00000000000000000000000000011000 +
b00101101000011100010011110101010100001100010110011010000100111000010011001001011100110110000100100001001000111100110000010010001011010001100111011010000111010001100101010000001100010001011111100001100100000001001110010001101000010110001010111011110010001100 3
b00110010000000100111001000110100001011000101011101111001000110000101101000011100010011110101010100001100010110011010000100111000010011001001011100110110000100100001001000111100110000010010001011010001100111011010000111010001100101010000001100010001011111100001100100000001001110010001101000010110001010111011110010001100 {
b01011010000111000100111101010101000011000101100110100001001110000100110010010111001101100001001000010010001111001100000100100010110100011001110110100001110100011001010100000011000100010111111000011001000000010011100100011010000101100010101110111100100011000 u!
1_"
#57
0_"
#58
b00000000000000000000000000011001 +
b01011010000111000100111101010101000011000101100110100001001110000100110010010111001101100001001000010010001111001100000100100010110100011001110110100001110100011001010100000011000100010111111000011001000000010011100100011010000101100010101110111100100011000 3
b01100100000001001110010001101000010110001010111011110010001100001011010000111000100111101010101000011000101100110100001001110000100110010010111001101100001001000010010001111001100000100100010110100011001110110100001110100011001010100000011000100010111111000011001000000010011100100011010000101100010101110111100100011000 {
b10110100001110001001111010101010000110001011001101000010011100001001100100101110011011000010010000100100011110011000001001000101101000110011101101000011101000110010101000000110001000101111110000110010000000100111001000110100001011000101011101111001000110000 u!
1_"
#59
0_"
#60
b00000000000000000000000000011010 +
b10110100001110001001111010101010000110001011001101000010011100001001100100101110011011000010010000100100011110011000001001000101101000110011101101000011101000110010101000000110001000101111110000110010000000100111001000110100001011000101011101111001000110000 3
b11001000000010011100100011010000101100010101110111100100011000010110100001110001001111010101010000110001011001101000010011100001001100100101110011011000010010000100100011110011000001001000101101000110011101101000011101000110010101000000110001000101111110000110010000000100111001000110100001011000101011101111001000110000 {
b01101000011100010011110101010100001100010110011010000100111000010011001001011100110110000100100001001000111100110000010010001011010001100111011010000111010001100101010000001100010001011111100001100100000001001110010001101000010110001010111011110010010100101 u!
1_"
#61
0_"
#62
b00000000000000000000000000011011 +
b01101000011100010011110101010100001100010110011010000100111000010011001001011100110110000100100001001000111100110000010010001011010001100111011010000111010001100101010000001100010001011111100001100100000001001110010001101000010110001010111011110010010100101 3
b10010000000100111001000110100001011000101011101111001001010010101101000011100010011110101010100001100010110011010000100111000010011001001011100110110000100100001001000111100110000010010001011010001100111011010000111010001100101010000001100010001011111100001100100000001001110010001101000010110001010111011110010010100101 {
b11010000111000100111101010101000011000101100110100001001110000100110010010111001101100001001000010010001111001100000100100010110100011001110110100001110100011001010100000011000100010111111000011001000000010011100100011010000101100010101110111100100101001010 u!
1_"
#63
0_"
#64
b00000000000000000000000000011100 +
b11010000111000100111101010101000011000101100110100001001110000100110010010111001101100001001000010010001111001100000100100010110100011001110110100001110100011001010100000011000100010111111000011001000000010011100100011010000101100010101110111100100101001010 3
b00100000001001110010001101000010110001010111011110010010100101011010000111000100111101010101000011000101100110100001001110000100110010010111001101100001001000010010001111001100000100100010110100011001110110100001110100011001010100000011000100010111111000011001000000010011100100011010000101100010101110111100100101001010 {
b10100001110001001111010101010000110001011001101000010011100001001100100101110011011000010010000100100011110011000001001000101101000110011101101000011101000110010101000000110001000101111110000110010000000100111001000110100001011000101011101111001001001010001 u!
1_"
#65
0_"
#66
b00000000000000000000000000011101 +
b10100001110001001111010101010000110001011001101000010011100001001100100101110011011000010010000100100011110011000001001000101101000110011101101000011101000110010101000000110001000101111110000110010000000100111001000110100001011000101011101111001001001010001 3
b01000000010011100100011010000101100010101110111100100100101000110100001110001001111010101010000110001011001101000010011100001001100100101110011011000010010000100100011110011000001001000101101000110011101101000011101000110010101000000110001000101111110000110010000000100111001000110100001011000101011101111001001001010001 {
b01000011100010011110101010100001100010110011010000100111000010011001001011100110110000100100001001000111100110000010010001011010001100111011010000111010001100101010000001100010001011111100001100100000001001110010001101000010110001010111011110010010001100111 u!
1_"
#67
0_"
#68
b00000000000000000000000000011110 +
b01000011100010011110101010100001100010110011010000100111000010011001001011100110110000100100001001000111100110000010010001011010001100111011010000111010001100101010000001100010001011111100001100100000001001110010001101000010110001010111011110010010001100111 3
b10000000100111001000110100001011000101011101111001001000110011101000011100010011110101010100001100010110011010000100111000010011001001011100110110000100100001001000111100110000010010001011010001100111011010000111010001100101010000001100010001011111100001100100000001001110010001101000010110001010111011110010010001100111 {
b10000111000100111101010101000011000101100110100001001110000100110010010111001101100001001000010010001111001100000100100010110100011001110110100001110100011001010100000011000100010111111000011001000000010011100100011010000101100010101110111100100100011001110 u!
1_"
#69
0_"
#70
b00000000000000000000000000011111 +
b10000111000100111101010101000011000101100110100001001110000100110010010111001101100001001000010010001111001100000100100010110100011001110110100001110100011001010100000011000100010111111000011001000000010011100100011010000101100010101110111100100100011001110 3
b00000001001110010001101000010110001010111011110010010001100111010000111000100111101010101000011000101100110100001001110000100110010010111001101100001001000010010001111001100000100100010110100011001110110100001110100011001010100000011000100010111111000011001000000010011100100011010000101100010101110111100100100011001110 {
b00001110001001111010101010000110001011001101000010011100001001100100101110011011000010010000100100011110011000001001000101101000110011101101000011101000110010101000000110001000101111110000110010000000100111001000110100001011000101011101111001001000101011001 u!
1_"
#71
0_"
#72
b00000000000000000000000000100000 +
b00001110001001111010101010000110001011001101000010011100001001100100101110011011000010010000100100011110011000001001000101101000110011101101000011101000110010101000000110001000101111110000110010000000100111001000110100001011000101011101111001001000101011001 3
b00000010011100100011010000101100010101110111100100100010101100100001110001001111010101010000110001011001101000010011100001001100100101110011011000010010000100100011110011000001001000101101000110011101101000011101000110010101000000110001000101111110000110010000000100111001000110100001011000101011101111001001000101011001 {
b00011100010011110101010100001100010110011010000100111000010011001001011100110110000100100001001000111100110000010010001011010001100111011010000111010001100101010000001100010001011111100001100100000001001110010001101000010110001010111011110010010001010110010 u!
1_"
#73
0_"
#74
b00000000000000000000000000100001 +
b00011100010011110101010100001100010110011010000100111000010011001001011100110110000100100001001000111100110000010010001011010001100111011010000111010001100101010000001100010001011111100001100100000001001110010001101000010110001010111011110010010001010110010 3
b00000100111001000110100001011000101011101111001001000101011001000011100010011110101010100001100010110011010000100111000010011001001011100110110000100100001001000111100110000010010001011010001100111011010000111010001100101010000001100010001011111100001100100000001001110010001101000010110001010111011110010010001010110010 {
b00111000100111101010101000011000101100110100001001110000100110010010111001101100001001000010010001111001100000100100010110100011001110110100001110100011001010100000011000100010111111000011001000000010011100100011010000101100010101110111100100100010101100100 u!
1_"
#75
0_"
#76
b00000000000000000000000000100010 +
b00111000100111101010101000011000101100110100001001110000100110010010111001101100001001000010010001111001100000100100010110100011001110110100001110100011001010100000011000100010111111000011001000000010011100100011010000101100010101110111100100100010101100100 3
b00001001110010001101000010110001010111011110010010001010110010000111000100111101010101000011000101100110100001001110000100110010010111001101100001001000010010001111001100000100100010110100011001110110100001110100011001010100000011000100010111111000011001000000010011100100011010000101100010101110111100100100010101100100 {
b01110001001111010101010000110001011001101000010011100001001100100101110011011000010010000100100011110011000001001000101101000110011101101000011101000110010101000000110001000101111110000110010000000100111001000110100001011000101011101111001001000101011001000 u!
1_"
#77
0_"
#78
b00000000000000000000000000100011 +
b01110001001111010101010000110001011001101000010011100001001100100101110011011000010010000100100011110011000001001000101101000110011101101000011101000110010101000000110001000101111110000110010000000100111001000110100001011000101011101111001001000101011001000 3
b00010011100100011010000101100010101110111100100100010101100100001110001001111010101010000110001011001101000010011100001001100100101110011011000010010000100100011110011000001001000101101000110011101101000011101000110010101000000110001000101111110000110010000000100111001000110100001011000101011101111001001000101011001000 {
b11100010011110101010100001100010110011010000100111000010011001001011100110110000100100001001000111100110000010010001011010001100111011010000111010001100101010000001100010001011111100001100100000001001110010001101000010110001010111011110010010001010110010000 u!
1_"
#79
0_"
#80
b00000000000000000000000000100100 +
b11100010011110101010100001100010110011010000100111000010011001001011100110110000100100001001000111100110000010010001011010001100111011010000111010001100101010000001100010001011111100001100100000001001110010001101000010110001010111011110010010001010110010000 3
b00100111001000110100001011000101011101111001001000101011001000011100010011110101010100001100010110011010000100111000010011001001011100110110000100100001001000111100110000010010001011010001100111011010000111010001100101010000001100010001011111100001100100000001001110010001101000010110001010111011110010010001010110010000 {
b11000100111101010101000011000101100110100001001110000100110010010111001101100001001000010010001111001100000100100010110100011001110110100001110100011001010100000011000100010111111000011001000000010011100100011010000101100010101110111100100100010101111100101 u!
1_"
#81
0_"
#82
b00000000000000000000000000100101 +
b11000100111101010101000011000101100110100001001110000100110010010111001101100001001000010010001111001100000100100010110100011001110110100001110100011001010100000011000100010111111000011001000000010011100100011010000101100010101110111100100100010101111100101 3
b01001110010001101000010110001010111011110010010001010111110010111000100111101010101000011000101100110100001001110000100110010010111001101100001001000010010001111001100000100100010110100011001110110100001110100011001010100000011000100010111111000011001000000010011100100011010000101100010101110111100100100010101111100101 {
b10001001111010101010000110001011001101000010011100001001100100101110011011000010010000100100011110011000001001000101101000110011101101000011101000110010101000000110001000101111110000110010000000100111001000110100001011000101011101111001001000101011100001111 u!
1_"
#83
0_"
#84
b00000000000000000000000000100110 +
b10001001111010101010000110001011001101000010011100001001100100101110011011000010010000100100011110011000001001000101101000110011101101000011101000110010101000000110001000101111110000110010000000100111001000110100001011000101011101111001001000101011100001111 3
b10011100100011010000101100010101110111100100100010101110000111110001001111010101010000110001011001101000010011100001001100100101110011011000010010000100100011110011000001001000101101000110011101101000011101000110010101000000110001000101111110000110010000000100111001000110100001011000101011101111001001000101011100001111 {
b00010011110101010100001100010110011010000100111000010011001001011100110110000100100001001000111100110000010010001011010001100111011010000111010001100101010000001100010001011111100001100100000001001110010001101000010110001010111011110010010001010111011011011 u!
1_"
#85
0_"
#86
b00000000000000000000000000100111 +
b00010011110101010100001100010110011010000100111000010011001001011100110110000100100001001000111100110000010010001011010001100111011010000111010001100101010000001100010001011111100001100100000001001110010001101000010110001010111011110010010001010111011011011 3
b00111001000110100001011000101011101111001001000101011101101101100010011110101010100001100010110011010000100111000010011001001011100110110000100100001001000111100110000010010001011010001100111011010000111010001100101010000001100010001011111100001100100000001001110010001101000010110001010111011110010010001010111011011011 {
b00100111101010101000011000101100110100001001110000100110010010111001101100001001000010010001111001100000100100010110100011001110110100001110100011001010100000011000100010111111000011001000000010011100100011010000101100010101110111100100100010101110110110110 u!
1_"
#87
0_"
#88
b00000000000000000000000000101000 +
b00100111101010101000011000101100110100001001110000100110010010111001101100001001000010010001111001100000100100010110100011001110110100001110100011001010100000011000100010111111000011001000000010011100100011010000101100010101110111100100100010101110110110110 3
b01110010001101000010110001010111011110010010001010111011011011000100111101010101000011000101100110100001001110000100110010010111001101100001001000010010001111001100000100100010110100011001110110100001110100011001010100000011000100010111111000011001000000010011100100011010000101100010101110111100100100010101110110110110 {
b01001111010101010000110001011001101000010011100001001100100101110011011000010010000100100011110011000001001000101101000110011101101000011101000110010101000000110001000101111110000110010000000100111001000110100001011000101011101111001001000101011101101101100 u!
1_"
#89
0_"
#90
b00000000000000000000000000101001 +
b01001111010101010000110001011001101000010011100001001100100101110011011000010010000100100011110011000001001000101101000110011101101000011101000110010101000000110001000101111110000110010000000100111001000110100001011000101011101111001001000101011101101101100 3
b11100100011010000101100010101110111100100100010101110110110110001001111010101010000110001011001101000010011100001001100100101110011011000010010000100100011110011000001001000101101000110011101101000011101000110010101000000110001000101111110000110010000000100111001000110100001011000101011101111001001000101011101101101100 {
b10011110101010100001100010110011010000100111000010011001001011100110110000100100001001000111100110000010010001011010001100111011010000111010001100101010000001100010001011111100001100100000001001110010001101000010110001010111011110010010001010111011011011000 u!
1_"
1o"
